<?xml version="1.0" standalone="no"?>
<!DOCTYPE svg PUBLIC "-//W3C//DTD SVG 1.1//EN" "http://www.w3.org/Graphics/SVG/1.1/DTD/svg11.dtd" >
<svg xmlns="http://www.w3.org/2000/svg">
<metadata>Generated by IcoMoon</metadata>
<defs>
<font id="icomoon" horiz-adv-x="1024">
<font-face units-per-em="1024" ascent="960" descent="-64" />
<missing-glyph horiz-adv-x="1024" />
<glyph unicode="&#x20;" horiz-adv-x="512" d="" />
<glyph unicode="&#xe900;" glyph-name="arrow-left" horiz-adv-x="1390" d="M501.321 874.496c8.341 8.832 20.132 14.33 33.207 14.33s24.865-5.498 33.186-14.308l0.021-0.022c8.334-8.789 13.459-20.692 13.459-33.792s-5.125-25.003-13.479-33.814l0.021 0.022-336.896-346.331h1111.771c26.059-0.207 47.105-21.38 47.105-47.468 0-0.103 0-0.207-0.001-0.31v0.016c0.001-0.133 0.002-0.29 0.002-0.447 0-26.232-21.019-47.555-47.133-48.046l-0.046-0.001h-1111.698l336.896-345.673c8.348-8.916 13.475-20.938 13.475-34.158s-5.127-25.241-13.501-34.186l0.026 0.028c-8.341-8.832-20.132-14.33-33.207-14.33s-24.865 5.498-33.186 14.308l-0.021 0.022-416.914 428.251c-8.334 8.789-13.459 20.692-13.459 33.792s5.125 25.003 13.479 33.814l-0.021-0.022z" />
<glyph unicode="&#xe901;" glyph-name="arrow-right" horiz-adv-x="1390" d="M960-49.371c-8.339-8.809-20.114-14.291-33.17-14.291s-24.832 5.482-33.151 14.27l-0.020 0.021c-8.324 8.766-13.445 20.644-13.445 33.719s5.12 24.953 13.465 33.74l-0.020-0.021 336.457 345.454h-1109.87c-26.043 0.123-47.108 21.263-47.108 47.323 0 0.206 0.001 0.412 0.004 0.617v-0.031c-0.002 0.154-0.003 0.336-0.003 0.519 0 26.177 20.995 47.451 47.065 47.901l0.042 0.001h1109.797l-336.457 344.795c-8.318 8.889-13.427 20.872-13.427 34.048s5.108 25.159 13.453 34.076l-0.026-0.028c8.329 8.828 20.108 14.324 33.17 14.324s24.841-5.496 33.149-14.302l0.021-0.022 415.963-427.227c8.324-8.766 13.445-20.644 13.445-33.719s-5.12-24.953-13.465-33.74l0.020 0.021z" />
<glyph unicode="&#xe902;" glyph-name="avatar" d="M512 960c-282.77 0-512-229.23-512-512s229.23-512 512-512c282.77 0 512 229.23 512 512v0c-0.853 282.427-229.574 511.148-511.919 512h-0.081zM512 806.4c0.826 0.016 1.801 0.026 2.778 0.026 83.311 0 150.848-67.537 150.848-150.848 0-0.977-0.009-1.951-0.028-2.923l0.002 0.146c0.016-0.826 0.026-1.801 0.026-2.778 0-83.311-67.537-150.848-150.848-150.848-0.977 0-1.951 0.009-2.923 0.028l0.146-0.002c-0.826-0.016-1.801-0.026-2.778-0.026-83.311 0-150.848 67.537-150.848 150.848 0 0.977 0.009 1.951 0.028 2.923l-0.002-0.146c-0.016 0.826-0.026 1.801-0.026 2.778 0 83.311 67.537 150.848 150.848 150.848 0.977 0 1.951-0.009 2.923-0.028l-0.146 0.002zM512 79.36c-127.287 0.677-239.426 64.915-306.375 162.567l-0.825 1.273c0 102.4 204.8 158.72 307.2 158.72s307.2-56.32 307.2-158.72c-67.774-98.925-179.913-163.163-307.096-163.84h-0.104z" />
<glyph unicode="&#xe903;" glyph-name="arrow-right2" d="M849.067 409.6c4.267 8.533 4.267 21.333 0 34.133-4.267 4.267-4.267 8.533-8.533 12.8l-298.667 298.667c-17.067 17.067-42.667 17.067-59.733 0s-17.067-42.667 0-59.733l226.133-226.133h-494.933c-25.6 0-42.667-17.067-42.667-42.667s17.067-42.667 42.667-42.667h494.933l-226.133-226.133c-17.067-17.067-17.067-42.667 0-59.733 8.533-8.533 21.333-12.8 29.867-12.8s21.333 4.267 29.867 12.8l298.667 298.667c4.267 4.267 8.533 8.533 8.533 12.8z" />
<glyph unicode="&#xe904;" glyph-name="arrow-left2" d="M810.667 469.334h-494.933l226.133 226.133c17.067 17.067 17.067 42.667 0 59.733s-42.667 17.067-59.733 0l-298.667-298.667c-4.267-4.267-8.533-8.533-8.533-12.8-4.267-8.533-4.267-21.333 0-34.133 4.267-4.267 4.267-8.533 8.533-12.8l298.667-298.667c8.533-8.533 21.333-12.8 29.867-12.8s21.333 4.267 29.867 12.8c17.067 17.067 17.067 42.667 0 59.733l-226.133 226.133h494.933c25.6 0 42.667 17.067 42.667 42.667s-17.067 42.667-42.667 42.667z" />
<glyph unicode="&#xe905;" glyph-name="log-out" d="M384 85.334h-170.667c-25.6 0-42.667 17.067-42.667 42.667v597.333c0 25.6 17.067 42.667 42.667 42.667h170.667c25.6 0 42.667 17.067 42.667 42.667s-17.067 42.667-42.667 42.667h-170.667c-72.533 0-128-55.467-128-128v-597.333c0-72.533 55.467-128 128-128h170.667c25.6 0 42.667 17.067 42.667 42.667s-17.067 42.667-42.667 42.667zM934.4 409.6c4.267 8.533 4.267 21.333 0 34.133-4.267 4.267-4.267 8.533-8.533 12.8l-213.333 213.333c-17.067 17.067-42.667 17.067-59.733 0s-17.067-42.667 0-59.733l140.8-140.8h-409.6c-25.6 0-42.667-17.067-42.667-42.667s17.067-42.667 42.667-42.667h409.6l-140.8-140.8c-17.067-17.067-17.067-42.667 0-59.733 8.533-8.533 21.333-12.8 29.867-12.8s21.333 4.267 29.867 12.8l213.333 213.333c4.267 4.267 8.533 8.533 8.533 12.8z" />
<glyph unicode="&#xe906;" glyph-name="close" d="M810 664.667l-238-238 238-238-60-60-238 238-238-238-60 60 238 238-238 238 60 60 238-238 238 238z" />
<glyph unicode="&#xe907;" glyph-name="keyboard_arrow_up" d="M316 280.667l-60 60 256 256 256-256-60-60-196 196z" />
<glyph unicode="&#xe908;" glyph-name="keyboard_arrow_right" d="M366 240.667l196 196-196 196 60 60 256-256-256-256z" />
<glyph unicode="&#xe909;" glyph-name="keyboard_arrow_left" d="M658 252.667l-60-60-256 256 256 256 60-60-196-196z" />
<glyph unicode="&#xe90a;" glyph-name="keyboard_arrow_down" d="M316 604.667l196-196 196 196 60-60-256-256-256 256z" />
<glyph unicode="&#xe90b;" glyph-name="arrow_drop_up" d="M298 340.667l214 214 214-214h-428z" />
<glyph unicode="&#xe90c;" glyph-name="arrow_drop_down" d="M298 512.667h428l-214-214z" />
<glyph unicode="&#xe90d;" glyph-name="printer" d="M853.333 597.334h-42.667v256c0 25.6-17.067 42.667-42.667 42.667h-512c-25.6 0-42.667-17.067-42.667-42.667v-256h-42.667c-72.533 0-128-55.467-128-128v-213.333c0-72.533 55.467-128 128-128h42.667v-128c0-25.6 17.067-42.667 42.667-42.667h512c25.6 0 42.667 17.067 42.667 42.667v128h42.667c72.533 0 128 55.467 128 128v213.333c0 72.533-55.467 128-128 128zM298.667 810.667h426.667v-213.333h-426.667v213.333zM725.333 42.667h-426.667v256h426.667v-256zM896 256c0-25.6-17.067-42.667-42.667-42.667h-42.667v128c0 25.6-17.067 42.667-42.667 42.667h-512c-25.6 0-42.667-17.067-42.667-42.667v-128h-42.667c-25.6 0-42.667 17.067-42.667 42.667v213.333c0 25.6 17.067 42.667 42.667 42.667h682.667c25.6 0 42.667-17.067 42.667-42.667v-213.333z" />
<glyph unicode="&#xe90e;" glyph-name="user-solid-circle" d="M512-64c-282.77 0-512 229.23-512 512s229.23 512 512 512v0c282.77 0 512-229.23 512-512s-229.23-512-512-512v0zM358.4 652.8v-102.4c0-84.831 68.769-153.6 153.6-153.6s153.6 68.769 153.6 153.6v0 102.4c0 84.831-68.769 153.6-153.6 153.6s-153.6-68.769-153.6-153.6v0zM171.52 220.672c74.541-110.327 199.152-181.904 340.48-181.904s265.938 71.577 339.558 180.457l0.922 1.447c-99.91 46.989-216.992 74.415-340.48 74.415s-240.569-27.426-345.486-76.519l5.006 2.104z" />
<glyph unicode="&#xe90f;" glyph-name="lock-closed" d="M204.8 550.4v102.4c0 169.662 137.538 307.2 307.2 307.2s307.2-137.538 307.2-307.2v0-102.4h51.2c56.554 0 102.4-45.846 102.4-102.4v0-409.6c0-56.554-45.846-102.4-102.4-102.4v0h-716.8c-56.554 0-102.4 45.846-102.4 102.4v0 409.6c0 56.32 46.080 102.4 102.4 102.4h51.2zM460.8 205.824v-116.224h102.4v116.224c30.824 18.035 51.2 50.978 51.2 88.681 0 56.554-45.846 102.4-102.4 102.4s-102.4-45.846-102.4-102.4c0-37.703 20.376-70.646 50.717-88.419l0.483-0.262zM358.4 652.8v-102.4h307.2v102.4c0 84.831-68.769 153.6-153.6 153.6s-153.6-68.769-153.6-153.6v0z" />
<glyph unicode="&#xe910;" glyph-name="lock-open" d="M204.8 550.4v102.4c0 169.662 137.538 307.2 307.2 307.2s307.2-137.538 307.2-307.2v0h-153.6v-102.4h204.8c56.554 0 102.4-45.846 102.4-102.4v0-409.6c0-56.554-45.846-102.4-102.4-102.4v0h-716.8c-56.554 0-102.4 45.846-102.4 102.4v0 409.6c0 56.32 46.080 102.4 102.4 102.4h51.2zM460.8 205.824v-116.224h102.4v116.224c30.824 18.035 51.2 50.978 51.2 88.681 0 56.554-45.846 102.4-102.4 102.4s-102.4-45.846-102.4-102.4c0-37.703 20.376-70.646 50.717-88.419l0.483-0.262zM358.4 652.8v-102.4h307.2v102.4c0 84.831-68.769 153.6-153.6 153.6s-153.6-68.769-153.6-153.6v0z" />
<glyph unicode="&#xe911;" glyph-name="checkmark" d="M0 396.8l102.4 102.4 256-256 563.2 563.2 102.4-102.4-665.6-665.6z" />
<glyph unicode="&#xe912;" glyph-name="attachment" d="M768 806.4h-409.6c-197.939 0-358.4-160.461-358.4-358.4s160.461-358.4 358.4-358.4v0h409.6v102.4h-409.6c-141.385 0-256 114.615-256 256s114.615 256 256 256v0h409.6c84.831 0 153.6-68.769 153.6-153.6s-68.769-153.6-153.6-153.6v0h-409.6c-28.277 0-51.2 22.923-51.2 51.2s22.923 51.2 51.2 51.2v0h409.6v102.4h-409.6c-84.831 0-153.6-68.769-153.6-153.6s68.769-153.6 153.6-153.6v0h409.6c141.385 0 256 114.615 256 256s-114.615 256-256 256v0z" />
<glyph unicode="&#xe913;" glyph-name="calculator" d="M102.4 857.6c0 56.32 46.080 102.4 102.4 102.4h614.4c56.554 0 102.4-45.846 102.4-102.4v0-819.2c0-56.554-45.846-102.4-102.4-102.4v0h-614.4c-56.554 0-102.4 45.846-102.4 102.4v0 819.2zM256 806.4v-102.4h512v102.4h-512zM256 601.6v-102.4h102.4v102.4h-102.4zM460.8 601.6v-102.4h102.4v102.4h-102.4zM665.6 601.6v-102.4h102.4v102.4h-102.4zM256 396.8v-102.4h102.4v102.4h-102.4zM460.8 396.8v-102.4h102.4v102.4h-102.4zM665.6 396.8v-307.2h102.4v307.2h-102.4zM256 192v-102.4h102.4v102.4h-102.4zM460.8 192v-102.4h102.4v102.4h-102.4z" />
<glyph unicode="&#xe914;" glyph-name="calendar" d="M51.2 755.2c0 56.32 46.080 102.4 102.4 102.4h716.8c56.554 0 102.4-45.846 102.4-102.4v0-716.8c0-56.554-45.846-102.4-102.4-102.4v0h-716.8c-56.554 0-102.4 45.846-102.4 102.4v0 716.8zM153.6 652.8v-614.4h716.8v614.4h-716.8zM256 960h102.4v-102.4h-102.4v102.4zM665.6 960h102.4v-102.4h-102.4v102.4zM256 499.2h102.4v-102.4h-102.4v102.4zM256 294.4h102.4v-102.4h-102.4v102.4zM460.8 499.2h102.4v-102.4h-102.4v102.4zM460.8 294.4h102.4v-102.4h-102.4v102.4zM665.6 499.2h102.4v-102.4h-102.4v102.4zM665.6 294.4h102.4v-102.4h-102.4v102.4z" />
<glyph unicode="&#xe915;" glyph-name="menu" d="M0 806.4h1024v-102.4h-1024v102.4zM0 499.2h1024v-102.4h-1024v102.4zM0 192h1024v-102.4h-1024v102.4z" />
<glyph unicode="&#xe916;" glyph-name="search" d="M660.48 226.816c-68.622-53.712-156.164-86.131-251.277-86.131-226.216 0-409.6 183.384-409.6 409.6s183.384 409.6 409.6 409.6c226.216 0 409.6-183.384 409.6-409.6 0-95.113-32.419-182.654-86.809-252.177l0.678 0.9 273.92-272.896-72.704-72.704-272.896 273.408zM409.6 243.2c169.662 0 307.2 137.538 307.2 307.2s-137.538 307.2-307.2 307.2v0c-169.662 0-307.2-137.538-307.2-307.2s137.538-307.2 307.2-307.2v0z" />
<glyph unicode="&#xe917;" glyph-name="magnifier" horiz-adv-x="1081" d="M1015.125-11.776l-248.889 248.832c66.589 76.289 107.193 176.756 107.193 286.706 0 241.36-195.661 437.020-437.020 437.020s-437.020-195.661-437.020-437.020c0-241.36 195.661-437.020 437.020-437.020 109.95 0 210.417 40.604 287.224 107.635l-0.518-0.442 248.889-248.832c5.515-5.551 13.125-9.013 21.544-9.102h0.017c0.021 0 0.045 0 0.069 0 8.43 0 16.046 3.486 21.484 9.095l0.007 0.008c5.477 5.537 8.86 13.154 8.86 21.561s-3.384 16.024-8.863 21.564l0.003-0.003zM61.099 523.378c0 207.365 168.102 375.467 375.467 375.467s375.467-168.102 375.467-375.467c0-207.365-168.102-375.467-375.467-375.467v0c-207.3 0.162-375.305 168.168-375.467 375.452v0.015z" />
<glyph unicode="&#xe918;" glyph-name="minus" horiz-adv-x="1023" d="M873.128 86.234c199.451 199.451 199.451 524.082 0 723.533s-524.082 199.451-723.533 0-199.452-524.082 0-723.533 524.082-199.452 723.533 0zM185.688 773.673c179.631 179.632 471.715 179.632 651.346 0s179.632-471.715 0-651.346-471.716-179.632-651.346 0-179.424 471.715 0 651.346zM677.64 473.661c0.050 0 0.108 0.001 0.167 0.001 13.966 0 25.287-11.321 25.287-25.287 0-0.059 0-0.117-0.001-0.176v0.009c-0.001-7.088-2.871-13.505-7.511-18.154v0c-4.669-4.607-11.073-7.466-18.145-7.511l-331.524 0.208c-14.057 0-25.453 11.396-25.453 25.453s11.396 25.453 25.453 25.453h331.726z" />
<glyph unicode="&#xe919;" glyph-name="plus" horiz-adv-x="1023" d="M873.128 86.234c199.451 199.451 199.451 524.082 0 723.533s-524.082 199.451-723.533 0-199.452-524.082 0-723.533 524.082-199.452 723.533 0zM185.688 773.673c179.631 179.632 471.715 179.632 651.346 0s179.632-471.715 0-651.346-471.716-179.632-651.346 0-179.424 471.715 0 651.346zM511.361 256.476c7.080 0.046 13.483 2.905 18.156 7.514l-0.003-0.003c4.64 4.649 7.509 11.066 7.511 18.153v0 140.407h140.407c7.080 0.045 13.484 2.904 18.156 7.513l-0.003-0.003c4.64 4.649 7.509 11.066 7.511 18.153v0c0 0.050 0.001 0.108 0.001 0.167 0 13.966-11.321 25.287-25.287 25.287-0.059 0-0.117 0-0.176-0.001h-140.403v140.4c0 14.057-11.396 25.453-25.453 25.453s-25.453-11.396-25.453-25.453v-140.403h-140.408c-14.057 0-25.453-11.396-25.453-25.453s11.396-25.453 25.453-25.453h140.408v-140.408c-0.015-0.323-0.024-0.702-0.024-1.083 0-13.691 11.099-24.789 24.789-24.789 0.095 0 0.19 0.001 0.285 0.002h-0.014z" />
<glyph unicode="&#xe91a;" glyph-name="info" d="M512-64c282.77 0 512 229.23 512 512s-229.23 512-512 512c-282.77 0-512-229.23-512-512v0c0-282.77 229.23-512 512-512v0zM540.444 780.8c47.128 0 85.333-38.205 85.333-85.333s-38.205-85.333-85.333-85.333c-47.128 0-85.333 38.205-85.333 85.333v0c0 47.128 38.205 85.333 85.333 85.333v0zM512 570.311c85.333 0 106.193-50.328 96.484-112.45l-39.595-257.327s28.444 0 85.333 28.444c0 0-28.444-113.778-142.222-113.778-85.333 0-106.193 50.366-96.484 112.45l39.595 257.327s-28.444 0-85.333-28.444c0 0 28.444 113.778 142.222 113.778z" />
</font></defs></svg>